%YAML 1.1
%TAG !u! tag:unity3d.com,2011:
--- !u!1 &1545930275777426661
GameObject:
  m_ObjectHideFlags: 0
  m_CorrespondingSourceObject: {fileID: 0}
  m_PrefabInstance: {fileID: 0}
  m_PrefabAsset: {fileID: 0}
  serializedVersion: 6
  m_Component:
  - component: {fileID: 266525572172919021}
  - component: {fileID: 3483314420015868401}
  - component: {fileID: 7111230590308488680}
  m_Layer: 31
  m_Name: Layer1
  m_TagString: Untagged
  m_Icon: {fileID: 0}
  m_NavMeshLayer: 0
  m_StaticEditorFlags: 0
  m_IsActive: 1
--- !u!4 &266525572172919021
Transform:
  m_ObjectHideFlags: 0
  m_CorrespondingSourceObject: {fileID: 0}
  m_PrefabInstance: {fileID: 0}
  m_PrefabAsset: {fileID: 0}
  m_GameObject: {fileID: 1545930275777426661}
  m_LocalRotation: {x: -0, y: -0, z: -0, w: 1}
  m_LocalPosition: {x: 0, y: 0, z: 0}
  m_LocalScale: {x: 1, y: 1, z: 1}
  m_Children: []
  m_Father: {fileID: 2328226594581416909}
  m_RootOrder: 0
  m_LocalEulerAnglesHint: {x: 0, y: 0, z: 0}
--- !u!1839735485 &3483314420015868401
Tilemap:
  m_ObjectHideFlags: 0
  m_CorrespondingSourceObject: {fileID: 0}
  m_PrefabInstance: {fileID: 0}
  m_PrefabAsset: {fileID: 0}
  m_GameObject: {fileID: 1545930275777426661}
  m_Enabled: 1
  m_Tiles:
  - first: {x: 0, y: -14, z: 0}
    second:
      m_TileIndex: 112
      m_TileSpriteIndex: 112
      m_TileMatrixIndex: 0
      m_TileColorIndex: 0
      m_ObjectToInstantiate: {fileID: 0}
      m_TileFlags: 1
      m_ColliderType: 1
  - first: {x: 1, y: -14, z: 0}
    second:
      m_TileIndex: 113
      m_TileSpriteIndex: 113
      m_TileMatrixIndex: 0
      m_TileColorIndex: 0
      m_ObjectToInstantiate: {fileID: 0}
      m_TileFlags: 1
      m_ColliderType: 1
  - first: {x: 2, y: -14, z: 0}
    second:
      m_TileIndex: 114
      m_TileSpriteIndex: 114
      m_TileMatrixIndex: 0
      m_TileColorIndex: 0
      m_ObjectToInstantiate: {fileID: 0}
      m_TileFlags: 1
      m_ColliderType: 1
  - first: {x: 3, y: -14, z: 0}
    second:
      m_TileIndex: 115
      m_TileSpriteIndex: 115
      m_TileMatrixIndex: 0
      m_TileColorIndex: 0
      m_ObjectToInstantiate: {fileID: 0}
      m_TileFlags: 1
      m_ColliderType: 1
  - first: {x: 3, y: -13, z: 0}
    second:
      m_TileIndex: 111
      m_TileSpriteIndex: 111
      m_TileMatrixIndex: 0
      m_TileColorIndex: 0
      m_ObjectToInstantiate: {fileID: 0}
      m_TileFlags: 1
      m_ColliderType: 1
  - first: {x: 1, y: -12, z: 0}
    second:
      m_TileIndex: 109
      m_TileSpriteIndex: 109
      m_TileMatrixIndex: 0
      m_TileColorIndex: 0
      m_ObjectToInstantiate: {fileID: 0}
      m_TileFlags: 1
      m_ColliderType: 1
  - first: {x: 3, y: -12, z: 0}
    second:
      m_TileIndex: 110
      m_TileSpriteIndex: 110
      m_TileMatrixIndex: 0
      m_TileColorIndex: 0
      m_ObjectToInstantiate: {fileID: 0}
      m_TileFlags: 1
      m_ColliderType: 1
  - first: {x: 6, y: -11, z: 0}
    second:
      m_TileIndex: 104
      m_TileSpriteIndex: 104
      m_TileMatrixIndex: 0
      m_TileColorIndex: 0
      m_ObjectToInstantiate: {fileID: 0}
      m_TileFlags: 1
      m_ColliderType: 1
  - first: {x: 7, y: -11, z: 0}
    second:
      m_TileIndex: 105
      m_TileSpriteIndex: 105
      m_TileMatrixIndex: 0
      m_TileColorIndex: 0
      m_ObjectToInstantiate: {fileID: 0}
      m_TileFlags: 1
      m_ColliderType: 1
  - first: {x: 8, y: -11, z: 0}
    second:
      m_TileIndex: 106
      m_TileSpriteIndex: 106
      m_TileMatrixIndex: 0
      m_TileColorIndex: 0
      m_ObjectToInstantiate: {fileID: 0}
      m_TileFlags: 1
      m_ColliderType: 1
  - first: {x: 9, y: -11, z: 0}
    second:
      m_TileIndex: 107
      m_TileSpriteIndex: 107
      m_TileMatrixIndex: 0
      m_TileColorIndex: 0
      m_ObjectToInstantiate: {fileID: 0}
      m_TileFlags: 1
      m_ColliderType: 1
  - first: {x: 14, y: -11, z: 0}
    second:
      m_TileIndex: 108
      m_TileSpriteIndex: 108
      m_TileMatrixIndex: 0
      m_TileColorIndex: 0
      m_ObjectToInstantiate: {fileID: 0}
      m_TileFlags: 1
      m_ColliderType: 1
  - first: {x: 1, y: -10, z: 0}
    second:
      m_TileIndex: 94
      m_TileSpriteIndex: 94
      m_TileMatrixIndex: 0
      m_TileColorIndex: 0
      m_ObjectToInstantiate: {fileID: 0}
      m_TileFlags: 1
      m_ColliderType: 1
  - first: {x: 2, y: -10, z: 0}
    second:
      m_TileIndex: 95
      m_TileSpriteIndex: 95
      m_TileMatrixIndex: 0
      m_TileColorIndex: 0
      m_ObjectToInstantiate: {fileID: 0}
      m_TileFlags: 1
      m_ColliderType: 1
  - first: {x: 3, y: -10, z: 0}
    second:
      m_TileIndex: 96
      m_TileSpriteIndex: 96
      m_TileMatrixIndex: 0
      m_TileColorIndex: 0
      m_ObjectToInstantiate: {fileID: 0}
      m_TileFlags: 1
      m_ColliderType: 1
  - first: {x: 6, y: -10, z: 0}
    second:
      m_TileIndex: 97
      m_TileSpriteIndex: 97
      m_TileMatrixIndex: 0
      m_TileColorIndex: 0
      m_ObjectToInstantiate: {fileID: 0}
      m_TileFlags: 1
      m_ColliderType: 1
  - first: {x: 7, y: -10, z: 0}
    second:
      m_TileIndex: 98
      m_TileSpriteIndex: 98
      m_TileMatrixIndex: 0
      m_TileColorIndex: 0
      m_ObjectToInstantiate: {fileID: 0}
      m_TileFlags: 1
      m_ColliderType: 1
  - first: {x: 8, y: -10, z: 0}
    second:
      m_TileIndex: 99
      m_TileSpriteIndex: 99
      m_TileMatrixIndex: 0
      m_TileColorIndex: 0
      m_ObjectToInstantiate: {fileID: 0}
      m_TileFlags: 1
      m_ColliderType: 1
  - first: {x: 9, y: -10, z: 0}
    second:
      m_TileIndex: 100
      m_TileSpriteIndex: 100
      m_TileMatrixIndex: 0
      m_TileColorIndex: 0
      m_ObjectToInstantiate: {fileID: 0}
      m_TileFlags: 1
      m_ColliderType: 1
  - first: {x: 12, y: -10, z: 0}
    second:
      m_TileIndex: 101
      m_TileSpriteIndex: 101
      m_TileMatrixIndex: 0
      m_TileColorIndex: 0
      m_ObjectToInstantiate: {fileID: 0}
      m_TileFlags: 1
      m_ColliderType: 1
  - first: {x: 13, y: -10, z: 0}
    second:
      m_TileIndex: 102
      m_TileSpriteIndex: 102
      m_TileMatrixIndex: 0
      m_TileColorIndex: 0
      m_ObjectToInstantiate: {fileID: 0}
      m_TileFlags: 1
      m_ColliderType: 1
  - first: {x: 14, y: -10, z: 0}
    second:
      m_TileIndex: 103
      m_TileSpriteIndex: 103
      m_TileMatrixIndex: 0
      m_TileColorIndex: 0
      m_ObjectToInstantiate: {fileID: 0}
      m_TileFlags: 1
      m_ColliderType: 1
  - first: {x: 2, y: -9, z: 0}
    second:
      m_TileIndex: 86
      m_TileSpriteIndex: 86
      m_TileMatrixIndex: 0
      m_TileColorIndex: 0
      m_ObjectToInstantiate: {fileID: 0}
      m_TileFlags: 1
      m_ColliderType: 1
  - first: {x: 3, y: -9, z: 0}
    second:
      m_TileIndex: 87
      m_TileSpriteIndex: 87
      m_TileMatrixIndex: 0
      m_TileColorIndex: 0
      m_ObjectToInstantiate: {fileID: 0}
      m_TileFlags: 1
      m_ColliderType: 1
  - first: {x: 6, y: -9, z: 0}
    second:
      m_TileIndex: 88
      m_TileSpriteIndex: 88
      m_TileMatrixIndex: 0
      m_TileColorIndex: 0
      m_ObjectToInstantiate: {fileID: 0}
      m_TileFlags: 1
      m_ColliderType: 1
  - first: {x: 7, y: -9, z: 0}
    second:
      m_TileIndex: 89
      m_TileSpriteIndex: 89
      m_TileMatrixIndex: 0
      m_TileColorIndex: 0
      m_ObjectToInstantiate: {fileID: 0}
      m_TileFlags: 1
      m_ColliderType: 1
  - first: {x: 8, y: -9, z: 0}
    second:
      m_TileIndex: 90
      m_TileSpriteIndex: 90
      m_TileMatrixIndex: 0
      m_TileColorIndex: 0
      m_ObjectToInstantiate: {fileID: 0}
      m_TileFlags: 1
      m_ColliderType: 1
  - first: {x: 9, y: -9, z: 0}
    second:
      m_TileIndex: 91
      m_TileSpriteIndex: 91
      m_TileMatrixIndex: 0
      m_TileColorIndex: 0
      m_ObjectToInstantiate: {fileID: 0}
      m_TileFlags: 1
      m_ColliderType: 1
  - first: {x: 12, y: -9, z: 0}
    second:
      m_TileIndex: 92
      m_TileSpriteIndex: 92
      m_TileMatrixIndex: 0
      m_TileColorIndex: 0
      m_ObjectToInstantiate: {fileID: 0}
      m_TileFlags: 1
      m_ColliderType: 1
  - first: {x: 13, y: -9, z: 0}
    second:
      m_TileIndex: 93
      m_TileSpriteIndex: 93
      m_TileMatrixIndex: 0
      m_TileColorIndex: 0
      m_ObjectToInstantiate: {fileID: 0}
      m_TileFlags: 1
      m_ColliderType: 1
  - first: {x: 2, y: -8, z: 0}
    second:
      m_TileIndex: 78
      m_TileSpriteIndex: 78
      m_TileMatrixIndex: 0
      m_TileColorIndex: 0
      m_ObjectToInstantiate: {fileID: 0}
      m_TileFlags: 1
      m_ColliderType: 1
  - first: {x: 6, y: -8, z: 0}
    second:
      m_TileIndex: 79
      m_TileSpriteIndex: 79
      m_TileMatrixIndex: 0
      m_TileColorIndex: 0
      m_ObjectToInstantiate: {fileID: 0}
      m_TileFlags: 1
      m_ColliderType: 1
  - first: {x: 7, y: -8, z: 0}
    second:
      m_TileIndex: 80
      m_TileSpriteIndex: 80
      m_TileMatrixIndex: 0
      m_TileColorIndex: 0
      m_ObjectToInstantiate: {fileID: 0}
      m_TileFlags: 1
      m_ColliderType: 1
  - first: {x: 8, y: -8, z: 0}
    second:
      m_TileIndex: 81
      m_TileSpriteIndex: 81
      m_TileMatrixIndex: 0
      m_TileColorIndex: 0
      m_ObjectToInstantiate: {fileID: 0}
      m_TileFlags: 1
      m_ColliderType: 1
  - first: {x: 9, y: -8, z: 0}
    second:
      m_TileIndex: 82
      m_TileSpriteIndex: 82
      m_TileMatrixIndex: 0
      m_TileColorIndex: 0
      m_ObjectToInstantiate: {fileID: 0}
      m_TileFlags: 1
      m_ColliderType: 1
  - first: {x: 10, y: -8, z: 0}
    second:
      m_TileIndex: 83
      m_TileSpriteIndex: 83
      m_TileMatrixIndex: 0
      m_TileColorIndex: 0
      m_ObjectToInstantiate: {fileID: 0}
      m_TileFlags: 1
      m_ColliderType: 1
  - first: {x: 11, y: -8, z: 0}
    second:
      m_TileIndex: 84
      m_TileSpriteIndex: 84
      m_TileMatrixIndex: 0
      m_TileColorIndex: 0
      m_ObjectToInstantiate: {fileID: 0}
      m_TileFlags: 1
      m_ColliderType: 1
  - first: {x: 12, y: -8, z: 0}
    second:
      m_TileIndex: 85
      m_TileSpriteIndex: 85
      m_TileMatrixIndex: 0
      m_TileColorIndex: 0
      m_ObjectToInstantiate: {fileID: 0}
      m_TileFlags: 1
      m_ColliderType: 1
  - first: {x: 2, y: -7, z: 0}
    second:
      m_TileIndex: 70
      m_TileSpriteIndex: 70
      m_TileMatrixIndex: 0
      m_TileColorIndex: 0
      m_ObjectToInstantiate: {fileID: 0}
      m_TileFlags: 1
      m_ColliderType: 1
  - first: {x: 6, y: -7, z: 0}
    second:
      m_TileIndex: 71
      m_TileSpriteIndex: 71
      m_TileMatrixIndex: 0
      m_TileColorIndex: 0
      m_ObjectToInstantiate: {fileID: 0}
      m_TileFlags: 1
      m_ColliderType: 1
  - first: {x: 7, y: -7, z: 0}
    second:
      m_TileIndex: 72
      m_TileSpriteIndex: 72
      m_TileMatrixIndex: 0
      m_TileColorIndex: 0
      m_ObjectToInstantiate: {fileID: 0}
      m_TileFlags: 1
      m_ColliderType: 1
  - first: {x: 8, y: -7, z: 0}
    second:
      m_TileIndex: 73
      m_TileSpriteIndex: 73
      m_TileMatrixIndex: 0
      m_TileColorIndex: 0
      m_ObjectToInstantiate: {fileID: 0}
      m_TileFlags: 1
      m_ColliderType: 1
  - first: {x: 9, y: -7, z: 0}
    second:
      m_TileIndex: 74
      m_TileSpriteIndex: 74
      m_TileMatrixIndex: 0
      m_TileColorIndex: 0
      m_ObjectToInstantiate: {fileID: 0}
      m_TileFlags: 1
      m_ColliderType: 1
  - first: {x: 10, y: -7, z: 0}
    second:
      m_TileIndex: 75
      m_TileSpriteIndex: 75
      m_TileMatrixIndex: 0
      m_TileColorIndex: 0
      m_ObjectToInstantiate: {fileID: 0}
      m_TileFlags: 1
      m_ColliderType: 1
  - first: {x: 11, y: -7, z: 0}
    second:
      m_TileIndex: 76
      m_TileSpriteIndex: 76
      m_TileMatrixIndex: 0
      m_TileColorIndex: 0
      m_ObjectToInstantiate: {fileID: 0}
      m_TileFlags: 1
      m_ColliderType: 1
  - first: {x: 12, y: -7, z: 0}
    second:
      m_TileIndex: 77
      m_TileSpriteIndex: 77
      m_TileMatrixIndex: 0
      m_TileColorIndex: 0
      m_ObjectToInstantiate: {fileID: 0}
      m_TileFlags: 1
      m_ColliderType: 1
  - first: {x: 1, y: -6, z: 0}
    second:
      m_TileIndex: 60
      m_TileSpriteIndex: 60
      m_TileMatrixIndex: 0
      m_TileColorIndex: 0
      m_ObjectToInstantiate: {fileID: 0}
      m_TileFlags: 1
      m_ColliderType: 1
  - first: {x: 2, y: -6, z: 0}
    second:
      m_TileIndex: 61
      m_TileSpriteIndex: 61
      m_TileMatrixIndex: 0
      m_TileColorIndex: 0
      m_ObjectToInstantiate: {fileID: 0}
      m_TileFlags: 1
      m_ColliderType: 1
  - first: {x: 3, y: -6, z: 0}
    second:
      m_TileIndex: 62
      m_TileSpriteIndex: 62
      m_TileMatrixIndex: 0
      m_TileColorIndex: 0
      m_ObjectToInstantiate: {fileID: 0}
      m_TileFlags: 1
      m_ColliderType: 1
  - first: {x: 6, y: -6, z: 0}
    second:
      m_TileIndex: 63
      m_TileSpriteIndex: 63
      m_TileMatrixIndex: 0
      m_TileColorIndex: 0
      m_ObjectToInstantiate: {fileID: 0}
      m_TileFlags: 1
      m_ColliderType: 1
  - first: {x: 7, y: -6, z: 0}
    second:
      m_TileIndex: 64
      m_TileSpriteIndex: 64
      m_TileMatrixIndex: 0
      m_TileColorIndex: 0
      m_ObjectToInstantiate: {fileID: 0}
      m_TileFlags: 1
      m_ColliderType: 1
  - first: {x: 8, y: -6, z: 0}
    second:
      m_TileIndex: 65
      m_TileSpriteIndex: 65
      m_TileMatrixIndex: 0
      m_TileColorIndex: 0
      m_ObjectToInstantiate: {fileID: 0}
      m_TileFlags: 1
      m_ColliderType: 1
  - first: {x: 9, y: -6, z: 0}
    second:
      m_TileIndex: 66
      m_TileSpriteIndex: 66
      m_TileMatrixIndex: 0
      m_TileColorIndex: 0
      m_ObjectToInstantiate: {fileID: 0}
      m_TileFlags: 1
      m_ColliderType: 1
  - first: {x: 10, y: -6, z: 0}
    second:
      m_TileIndex: 67
      m_TileSpriteIndex: 67
      m_TileMatrixIndex: 0
      m_TileColorIndex: 0
      m_ObjectToInstantiate: {fileID: 0}
      m_TileFlags: 1
      m_ColliderType: 1
  - first: {x: 11, y: -6, z: 0}
    second:
      m_TileIndex: 68
      m_TileSpriteIndex: 68
      m_TileMatrixIndex: 0
      m_TileColorIndex: 0
      m_ObjectToInstantiate: {fileID: 0}
      m_TileFlags: 1
      m_ColliderType: 1
  - first: {x: 12, y: -6, z: 0}
    second:
      m_TileIndex: 69
      m_TileSpriteIndex: 69
      m_TileMatrixIndex: 0
      m_TileColorIndex: 0
      m_ObjectToInstantiate: {fileID: 0}
      m_TileFlags: 1
      m_ColliderType: 1
  - first: {x: 1, y: -5, z: 0}
    second:
      m_TileIndex: 52
      m_TileSpriteIndex: 52
      m_TileMatrixIndex: 0
      m_TileColorIndex: 0
      m_ObjectToInstantiate: {fileID: 0}
      m_TileFlags: 1
      m_ColliderType: 1
  - first: {x: 2, y: -5, z: 0}
    second:
      m_TileIndex: 53
      m_TileSpriteIndex: 53
      m_TileMatrixIndex: 0
      m_TileColorIndex: 0
      m_ObjectToInstantiate: {fileID: 0}
      m_TileFlags: 1
      m_ColliderType: 1
  - first: {x: 3, y: -5, z: 0}
    second:
      m_TileIndex: 54
      m_TileSpriteIndex: 54
      m_TileMatrixIndex: 0
      m_TileColorIndex: 0
      m_ObjectToInstantiate: {fileID: 0}
      m_TileFlags: 1
      m_ColliderType: 1
  - first: {x: 6, y: -5, z: 0}
    second:
      m_TileIndex: 55
      m_TileSpriteIndex: 55
      m_TileMatrixIndex: 0
      m_TileColorIndex: 0
      m_ObjectToInstantiate: {fileID: 0}
      m_TileFlags: 1
      m_ColliderType: 1
  - first: {x: 7, y: -5, z: 0}
    second:
      m_TileIndex: 56
      m_TileSpriteIndex: 56
      m_TileMatrixIndex: 0
      m_TileColorIndex: 0
      m_ObjectToInstantiate: {fileID: 0}
      m_TileFlags: 1
      m_ColliderType: 1
  - first: {x: 8, y: -5, z: 0}
    second:
      m_TileIndex: 57
      m_TileSpriteIndex: 57
      m_TileMatrixIndex: 0
      m_TileColorIndex: 0
      m_ObjectToInstantiate: {fileID: 0}
      m_TileFlags: 1
      m_ColliderType: 1
  - first: {x: 9, y: -5, z: 0}
    second:
      m_TileIndex: 58
      m_TileSpriteIndex: 58
      m_TileMatrixIndex: 0
      m_TileColorIndex: 0
      m_ObjectToInstantiate: {fileID: 0}
      m_TileFlags: 1
      m_ColliderType: 1
  - first: {x: 14, y: -5, z: 0}
    second:
      m_TileIndex: 59
      m_TileSpriteIndex: 59
      m_TileMatrixIndex: 0
      m_TileColorIndex: 0
      m_ObjectToInstantiate: {fileID: 0}
      m_TileFlags: 1
      m_ColliderType: 1
  - first: {x: 0, y: -4, z: 0}
    second:
      m_TileIndex: 40
      m_TileSpriteIndex: 40
      m_TileMatrixIndex: 0
      m_TileColorIndex: 0
      m_ObjectToInstantiate: {fileID: 0}
      m_TileFlags: 1
      m_ColliderType: 1
  - first: {x: 1, y: -4, z: 0}
    second:
      m_TileIndex: 41
      m_TileSpriteIndex: 41
      m_TileMatrixIndex: 0
      m_TileColorIndex: 0
      m_ObjectToInstantiate: {fileID: 0}
      m_TileFlags: 1
      m_ColliderType: 1
  - first: {x: 2, y: -4, z: 0}
    second:
      m_TileIndex: 42
      m_TileSpriteIndex: 42
      m_TileMatrixIndex: 0
      m_TileColorIndex: 0
      m_ObjectToInstantiate: {fileID: 0}
      m_TileFlags: 1
      m_ColliderType: 1
  - first: {x: 3, y: -4, z: 0}
    second:
      m_TileIndex: 43
      m_TileSpriteIndex: 43
      m_TileMatrixIndex: 0
      m_TileColorIndex: 0
      m_ObjectToInstantiate: {fileID: 0}
      m_TileFlags: 1
      m_ColliderType: 1
  - first: {x: 4, y: -4, z: 0}
    second:
      m_TileIndex: 44
      m_TileSpriteIndex: 44
      m_TileMatrixIndex: 0
      m_TileColorIndex: 0
      m_ObjectToInstantiate: {fileID: 0}
      m_TileFlags: 1
      m_ColliderType: 1
  - first: {x: 6, y: -4, z: 0}
    second:
      m_TileIndex: 45
      m_TileSpriteIndex: 45
      m_TileMatrixIndex: 0
      m_TileColorIndex: 0
      m_ObjectToInstantiate: {fileID: 0}
      m_TileFlags: 1
      m_ColliderType: 1
  - first: {x: 7, y: -4, z: 0}
    second:
      m_TileIndex: 46
      m_TileSpriteIndex: 46
      m_TileMatrixIndex: 0
      m_TileColorIndex: 0
      m_ObjectToInstantiate: {fileID: 0}
      m_TileFlags: 1
      m_ColliderType: 1
  - first: {x: 8, y: -4, z: 0}
    second:
      m_TileIndex: 47
      m_TileSpriteIndex: 47
      m_TileMatrixIndex: 0
      m_TileColorIndex: 0
      m_ObjectToInstantiate: {fileID: 0}
      m_TileFlags: 1
      m_ColliderType: 1
  - first: {x: 9, y: -4, z: 0}
    second:
      m_TileIndex: 48
      m_TileSpriteIndex: 48
      m_TileMatrixIndex: 0
      m_TileColorIndex: 0
      m_ObjectToInstantiate: {fileID: 0}
      m_TileFlags: 1
      m_ColliderType: 1
  - first: {x: 12, y: -4, z: 0}
    second:
      m_TileIndex: 49
      m_TileSpriteIndex: 49
      m_TileMatrixIndex: 0
      m_TileColorIndex: 0
      m_ObjectToInstantiate: {fileID: 0}
      m_TileFlags: 1
      m_ColliderType: 1
  - first: {x: 13, y: -4, z: 0}
    second:
      m_TileIndex: 50
      m_TileSpriteIndex: 50
      m_TileMatrixIndex: 0
      m_TileColorIndex: 0
      m_ObjectToInstantiate: {fileID: 0}
      m_TileFlags: 1
      m_ColliderType: 1
  - first: {x: 14, y: -4, z: 0}
    second:
      m_TileIndex: 51
      m_TileSpriteIndex: 51
      m_TileMatrixIndex: 0
      m_TileColorIndex: 0
      m_ObjectToInstantiate: {fileID: 0}
      m_TileFlags: 1
      m_ColliderType: 1
  - first: {x: 6, y: -3, z: 0}
    second:
      m_TileIndex: 34
      m_TileSpriteIndex: 34
      m_TileMatrixIndex: 0
      m_TileColorIndex: 0
      m_ObjectToInstantiate: {fileID: 0}
      m_TileFlags: 1
      m_ColliderType: 1
  - first: {x: 7, y: -3, z: 0}
    second:
      m_TileIndex: 35
      m_TileSpriteIndex: 35
      m_TileMatrixIndex: 0
      m_TileColorIndex: 0
      m_ObjectToInstantiate: {fileID: 0}
      m_TileFlags: 1
      m_ColliderType: 1
  - first: {x: 8, y: -3, z: 0}
    second:
      m_TileIndex: 36
      m_TileSpriteIndex: 36
      m_TileMatrixIndex: 0
      m_TileColorIndex: 0
      m_ObjectToInstantiate: {fileID: 0}
      m_TileFlags: 1
      m_ColliderType: 1
  - first: {x: 9, y: -3, z: 0}
    second:
      m_TileIndex: 37
      m_TileSpriteIndex: 37
      m_TileMatrixIndex: 0
      m_TileColorIndex: 0
      m_ObjectToInstantiate: {fileID: 0}
      m_TileFlags: 1
      m_ColliderType: 1
  - first: {x: 12, y: -3, z: 0}
    second:
      m_TileIndex: 38
      m_TileSpriteIndex: 38
      m_TileMatrixIndex: 0
      m_TileColorIndex: 0
      m_ObjectToInstantiate: {fileID: 0}
      m_TileFlags: 1
      m_ColliderType: 1
  - first: {x: 13, y: -3, z: 0}
    second:
      m_TileIndex: 39
      m_TileSpriteIndex: 39
      m_TileMatrixIndex: 0
      m_TileColorIndex: 0
      m_ObjectToInstantiate: {fileID: 0}
      m_TileFlags: 1
      m_ColliderType: 1
  - first: {x: -1, y: -2, z: 0}
    second:
      m_TileIndex: 23
      m_TileSpriteIndex: 23
      m_TileMatrixIndex: 0
      m_TileColorIndex: 0
      m_ObjectToInstantiate: {fileID: 0}
      m_TileFlags: 1
      m_ColliderType: 1
  - first: {x: 0, y: -2, z: 0}
    second:
      m_TileIndex: 24
      m_TileSpriteIndex: 24
      m_TileMatrixIndex: 0
      m_TileColorIndex: 0
      m_ObjectToInstantiate: {fileID: 0}
      m_TileFlags: 1
      m_ColliderType: 1
  - first: {x: 1, y: -2, z: 0}
    second:
      m_TileIndex: 25
      m_TileSpriteIndex: 25
      m_TileMatrixIndex: 0
      m_TileColorIndex: 0
      m_ObjectToInstantiate: {fileID: 0}
      m_TileFlags: 1
      m_ColliderType: 1
  - first: {x: 3, y: -2, z: 0}
    second:
      m_TileIndex: 26
      m_TileSpriteIndex: 26
      m_TileMatrixIndex: 0
      m_TileColorIndex: 0
      m_ObjectToInstantiate: {fileID: 0}
      m_TileFlags: 1
      m_ColliderType: 1
  - first: {x: 6, y: -2, z: 0}
    second:
      m_TileIndex: 27
      m_TileSpriteIndex: 27
      m_TileMatrixIndex: 0
      m_TileColorIndex: 0
      m_ObjectToInstantiate: {fileID: 0}
      m_TileFlags: 1
      m_ColliderType: 1
  - first: {x: 7, y: -2, z: 0}
    second:
      m_TileIndex: 28
      m_TileSpriteIndex: 28
      m_TileMatrixIndex: 0
      m_TileColorIndex: 0
      m_ObjectToInstantiate: {fileID: 0}
      m_TileFlags: 1
      m_ColliderType: 1
  - first: {x: 8, y: -2, z: 0}
    second:
      m_TileIndex: 29
      m_TileSpriteIndex: 29
      m_TileMatrixIndex: 0
      m_TileColorIndex: 0
      m_ObjectToInstantiate: {fileID: 0}
      m_TileFlags: 1
      m_ColliderType: 1
  - first: {x: 9, y: -2, z: 0}
    second:
      m_TileIndex: 30
      m_TileSpriteIndex: 30
      m_TileMatrixIndex: 0
      m_TileColorIndex: 0
      m_ObjectToInstantiate: {fileID: 0}
      m_TileFlags: 1
      m_ColliderType: 1
  - first: {x: 10, y: -2, z: 0}
    second:
      m_TileIndex: 31
      m_TileSpriteIndex: 31
      m_TileMatrixIndex: 0
      m_TileColorIndex: 0
      m_ObjectToInstantiate: {fileID: 0}
      m_TileFlags: 1
      m_ColliderType: 1
  - first: {x: 11, y: -2, z: 0}
    second:
      m_TileIndex: 32
      m_TileSpriteIndex: 32
      m_TileMatrixIndex: 0
      m_TileColorIndex: 0
      m_ObjectToInstantiate: {fileID: 0}
      m_TileFlags: 1
      m_ColliderType: 1
  - first: {x: 12, y: -2, z: 0}
    second:
      m_TileIndex: 33
      m_TileSpriteIndex: 33
      m_TileMatrixIndex: 0
      m_TileColorIndex: 0
      m_ObjectToInstantiate: {fileID: 0}
      m_TileFlags: 1
      m_ColliderType: 1
  - first: {x: -1, y: -1, z: 0}
    second:
      m_TileIndex: 10
      m_TileSpriteIndex: 10
      m_TileMatrixIndex: 0
      m_TileColorIndex: 0
      m_ObjectToInstantiate: {fileID: 0}
      m_TileFlags: 1
      m_ColliderType: 1
  - first: {x: 0, y: -1, z: 0}
    second:
      m_TileIndex: 11
      m_TileSpriteIndex: 11
      m_TileMatrixIndex: 0
      m_TileColorIndex: 0
      m_ObjectToInstantiate: {fileID: 0}
      m_TileFlags: 1
      m_ColliderType: 1
  - first: {x: 1, y: -1, z: 0}
    second:
      m_TileIndex: 12
      m_TileSpriteIndex: 12
      m_TileMatrixIndex: 0
      m_TileColorIndex: 0
      m_ObjectToInstantiate: {fileID: 0}
      m_TileFlags: 1
      m_ColliderType: 1
  - first: {x: 3, y: -1, z: 0}
    second:
      m_TileIndex: 13
      m_TileSpriteIndex: 13
      m_TileMatrixIndex: 0
      m_TileColorIndex: 0
      m_ObjectToInstantiate: {fileID: 0}
      m_TileFlags: 1
      m_ColliderType: 1
  - first: {x: 4, y: -1, z: 0}
    second:
      m_TileIndex: 14
      m_TileSpriteIndex: 14
      m_TileMatrixIndex: 0
      m_TileColorIndex: 0
      m_ObjectToInstantiate: {fileID: 0}
      m_TileFlags: 1
      m_ColliderType: 1
  - first: {x: 5, y: -1, z: 0}
    second:
      m_TileIndex: 15
      m_TileSpriteIndex: 15
      m_TileMatrixIndex: 0
      m_TileColorIndex: 0
      m_ObjectToInstantiate: {fileID: 0}
      m_TileFlags: 1
      m_ColliderType: 1
  - first: {x: 6, y: -1, z: 0}
    second:
      m_TileIndex: 16
      m_TileSpriteIndex: 16
      m_TileMatrixIndex: 0
      m_TileColorIndex: 0
      m_ObjectToInstantiate: {fileID: 0}
      m_TileFlags: 1
      m_ColliderType: 1
  - first: {x: 7, y: -1, z: 0}
    second:
      m_TileIndex: 17
      m_TileSpriteIndex: 17
      m_TileMatrixIndex: 0
      m_TileColorIndex: 0
      m_ObjectToInstantiate: {fileID: 0}
      m_TileFlags: 1
      m_ColliderType: 1
  - first: {x: 8, y: -1, z: 0}
    second:
      m_TileIndex: 18
      m_TileSpriteIndex: 18
      m_TileMatrixIndex: 0
      m_TileColorIndex: 0
      m_ObjectToInstantiate: {fileID: 0}
      m_TileFlags: 1
      m_ColliderType: 1
  - first: {x: 9, y: -1, z: 0}
    second:
      m_TileIndex: 19
      m_TileSpriteIndex: 19
      m_TileMatrixIndex: 0
      m_TileColorIndex: 0
      m_ObjectToInstantiate: {fileID: 0}
      m_TileFlags: 1
      m_ColliderType: 1
  - first: {x: 10, y: -1, z: 0}
    second:
      m_TileIndex: 20
      m_TileSpriteIndex: 20
      m_TileMatrixIndex: 0
      m_TileColorIndex: 0
      m_ObjectToInstantiate: {fileID: 0}
      m_TileFlags: 1
      m_ColliderType: 1
  - first: {x: 11, y: -1, z: 0}
    second:
      m_TileIndex: 21
      m_TileSpriteIndex: 21
      m_TileMatrixIndex: 0
      m_TileColorIndex: 0
      m_ObjectToInstantiate: {fileID: 0}
      m_TileFlags: 1
      m_ColliderType: 1
  - first: {x: 12, y: -1, z: 0}
    second:
      m_TileIndex: 22
      m_TileSpriteIndex: 22
      m_TileMatrixIndex: 0
      m_TileColorIndex: 0
      m_ObjectToInstantiate: {fileID: 0}
      m_TileFlags: 1
      m_ColliderType: 1
  - first: {x: -1, y: 0, z: 0}
    second:
      m_TileIndex: 0
      m_TileSpriteIndex: 0
      m_TileMatrixIndex: 0
      m_TileColorIndex: 0
      m_ObjectToInstantiate: {fileID: 0}
      m_TileFlags: 1
      m_ColliderType: 1
  - first: {x: 0, y: 0, z: 0}
    second:
      m_TileIndex: 1
      m_TileSpriteIndex: 1
      m_TileMatrixIndex: 0
      m_TileColorIndex: 0
      m_ObjectToInstantiate: {fileID: 0}
      m_TileFlags: 1
      m_ColliderType: 1
  - first: {x: 1, y: 0, z: 0}
    second:
      m_TileIndex: 2
      m_TileSpriteIndex: 2
      m_TileMatrixIndex: 0
      m_TileColorIndex: 0
      m_ObjectToInstantiate: {fileID: 0}
      m_TileFlags: 1
      m_ColliderType: 1
  - first: {x: 6, y: 0, z: 0}
    second:
      m_TileIndex: 3
      m_TileSpriteIndex: 3
      m_TileMatrixIndex: 0
      m_TileColorIndex: 0
      m_ObjectToInstantiate: {fileID: 0}
      m_TileFlags: 1
      m_ColliderType: 1
  - first: {x: 7, y: 0, z: 0}
    second:
      m_TileIndex: 4
      m_TileSpriteIndex: 4
      m_TileMatrixIndex: 0
      m_TileColorIndex: 0
      m_ObjectToInstantiate: {fileID: 0}
      m_TileFlags: 1
      m_ColliderType: 1
  - first: {x: 8, y: 0, z: 0}
    second:
      m_TileIndex: 5
      m_TileSpriteIndex: 5
      m_TileMatrixIndex: 0
      m_TileColorIndex: 0
      m_ObjectToInstantiate: {fileID: 0}
      m_TileFlags: 1
      m_ColliderType: 1
  - first: {x: 9, y: 0, z: 0}
    second:
      m_TileIndex: 6
      m_TileSpriteIndex: 6
      m_TileMatrixIndex: 0
      m_TileColorIndex: 0
      m_ObjectToInstantiate: {fileID: 0}
      m_TileFlags: 1
      m_ColliderType: 1
  - first: {x: 10, y: 0, z: 0}
    second:
      m_TileIndex: 7
      m_TileSpriteIndex: 7
      m_TileMatrixIndex: 0
      m_TileColorIndex: 0
      m_ObjectToInstantiate: {fileID: 0}
      m_TileFlags: 1
      m_ColliderType: 1
  - first: {x: 11, y: 0, z: 0}
    second:
      m_TileIndex: 8
      m_TileSpriteIndex: 8
      m_TileMatrixIndex: 0
      m_TileColorIndex: 0
      m_ObjectToInstantiate: {fileID: 0}
      m_TileFlags: 1
      m_ColliderType: 1
  - first: {x: 12, y: 0, z: 0}
    second:
      m_TileIndex: 9
      m_TileSpriteIndex: 9
      m_TileMatrixIndex: 0
      m_TileColorIndex: 0
      m_ObjectToInstantiate: {fileID: 0}
      m_TileFlags: 1
      m_ColliderType: 1
  m_AnimatedTiles: {}
  m_TileAssetArray:
  - m_RefCount: 1
    m_Data: {fileID: 11400000, guid: a8340135f4268de4bb18164801b01014, type: 2}
  - m_RefCount: 1
    m_Data: {fileID: 11400000, guid: 721efe23f5e890e4fbc3f8c6df0f8cc9, type: 2}
  - m_RefCount: 1
    m_Data: {fileID: 11400000, guid: 9827f16545bbf894881b23d754f45a1c, type: 2}
  - m_RefCount: 1
    m_Data: {fileID: 11400000, guid: bdec733da0702eb4c8285dfeac195355, type: 2}
  - m_RefCount: 1
    m_Data: {fileID: 11400000, guid: 0dfef9e5254c5554fa363f30856f479f, type: 2}
  - m_RefCount: 1
    m_Data: {fileID: 11400000, guid: 36dea2516a9be32439f6f2a51fc302bf, type: 2}
  - m_RefCount: 1
    m_Data: {fileID: 11400000, guid: 8efccdf61d43a8c4a9316c2085703788, type: 2}
  - m_RefCount: 1
    m_Data: {fileID: 11400000, guid: b8a66ea3dd863a342a0ee6ada2dd3d12, type: 2}
  - m_RefCount: 1
    m_Data: {fileID: 11400000, guid: 2e20d3767cb2c5c4398c931f29f7a0de, type: 2}
  - m_RefCount: 1
    m_Data: {fileID: 11400000, guid: e8aa4b22b8a195d4fb41eef65ed08ead, type: 2}
  - m_RefCount: 1
    m_Data: {fileID: 11400000, guid: bcd2d70fe11998848bdc788548f7c79c, type: 2}
  - m_RefCount: 1
    m_Data: {fileID: 11400000, guid: af2171da8c1bc6d4398eaa2efd49f0cd, type: 2}
  - m_RefCount: 1
    m_Data: {fileID: 11400000, guid: 024d66cf667f4c945b260365c6708e8c, type: 2}
  - m_RefCount: 1
    m_Data: {fileID: 11400000, guid: 4e82c8eafd84fe7449bc4024f63e6707, type: 2}
  - m_RefCount: 1
    m_Data: {fileID: 11400000, guid: 61e9752d7ed0ab54d90eda5b0efb261c, type: 2}
  - m_RefCount: 1
    m_Data: {fileID: 11400000, guid: 43f999cde3c9f264fa503111be81abcb, type: 2}
  - m_RefCount: 1
    m_Data: {fileID: 11400000, guid: ef5efb35d3331834b8f8575c1c7ae950, type: 2}
  - m_RefCount: 1
    m_Data: {fileID: 11400000, guid: d8a602ce27fb9d24982135d1b93d7a4a, type: 2}
  - m_RefCount: 1
    m_Data: {fileID: 11400000, guid: bedd5420a3a74214c87160666a4a405b, type: 2}
  - m_RefCount: 1
    m_Data: {fileID: 11400000, guid: 6ad6f9315ef4bdb4aab88853b87f7ad0, type: 2}
  - m_RefCount: 1
    m_Data: {fileID: 11400000, guid: 2ae4244a81332404a939810113e40973, type: 2}
  - m_RefCount: 1
    m_Data: {fileID: 11400000, guid: 510306e7279b59143ad3fdaced1e8487, type: 2}
  - m_RefCount: 1
    m_Data: {fileID: 11400000, guid: a6175b2a0b2928f43bbb27a048d19868, type: 2}
  - m_RefCount: 1
    m_Data: {fileID: 11400000, guid: 68bb970064c964b4797d9e55a2afe5b9, type: 2}
  - m_RefCount: 1
    m_Data: {fileID: 11400000, guid: e6513395cc32a4649b0fd3be1c8caa9c, type: 2}
  - m_RefCount: 1
    m_Data: {fileID: 11400000, guid: 31dfdbfee2ff3d040bd4c1f3930a75b7, type: 2}
  - m_RefCount: 1
    m_Data: {fileID: 11400000, guid: ecf6aa5104029244f8aa208f3cab126d, type: 2}
  - m_RefCount: 1
    m_Data: {fileID: 11400000, guid: 78606def35283c942978e387c9bcc782, type: 2}
  - m_RefCount: 1
    m_Data: {fileID: 11400000, guid: 8474f190771d7024ab99191c72ae304f, type: 2}
  - m_RefCount: 1
    m_Data: {fileID: 11400000, guid: bd109cac31046b8448e571ca716d305b, type: 2}
  - m_RefCount: 1
    m_Data: {fileID: 11400000, guid: ef1bd0058a65271458f65a1b58752755, type: 2}
  - m_RefCount: 1
    m_Data: {fileID: 11400000, guid: 09002d5edbba3f94da946574339cdb70, type: 2}
  - m_RefCount: 1
    m_Data: {fileID: 11400000, guid: 9a415c0e40636154198ad30d91244786, type: 2}
  - m_RefCount: 1
    m_Data: {fileID: 11400000, guid: 0c6aaf428f0eb414585cb1da4bcbcc90, type: 2}
  - m_RefCount: 1
    m_Data: {fileID: 11400000, guid: bde2aabb30414a24fa7d8c95f505ab80, type: 2}
  - m_RefCount: 1
    m_Data: {fileID: 11400000, guid: 786f897572e676f48af32f273e690284, type: 2}
  - m_RefCount: 1
    m_Data: {fileID: 11400000, guid: b8f2d6520561d9741a447d0e2f8058c9, type: 2}
  - m_RefCount: 1
    m_Data: {fileID: 11400000, guid: e547a8725dc8fa048a267f718c67b923, type: 2}
  - m_RefCount: 1
    m_Data: {fileID: 11400000, guid: 874085d52db352540a7d4b330534299b, type: 2}
  - m_RefCount: 1
    m_Data: {fileID: 11400000, guid: eb827983e43574a4b954cead22924a1d, type: 2}
  - m_RefCount: 1
    m_Data: {fileID: 11400000, guid: 216dac583d87f6f4c95fc747d3ef3955, type: 2}
  - m_RefCount: 1
    m_Data: {fileID: 11400000, guid: eaf3c815a275c6b4db0dd2f452e139ba, type: 2}
  - m_RefCount: 1
    m_Data: {fileID: 11400000, guid: 3c72d03fa327a774e801daa9b32a62d3, type: 2}
  - m_RefCount: 1
    m_Data: {fileID: 11400000, guid: 3c4e4041debbadc4c897eea66056f416, type: 2}
  - m_RefCount: 1
    m_Data: {fileID: 11400000, guid: 5adfb13bb2eaf9a4ebf1c21f40ed361e, type: 2}
  - m_RefCount: 1
    m_Data: {fileID: 11400000, guid: 6c8fcd39873b4a84eb35d75d99337d70, type: 2}
  - m_RefCount: 1
    m_Data: {fileID: 11400000, guid: 21f910b6ce007b743a43f654cce8772e, type: 2}
  - m_RefCount: 1
    m_Data: {fileID: 11400000, guid: c966b8dddf74c034ab1efe9549f94133, type: 2}
  - m_RefCount: 1
    m_Data: {fileID: 11400000, guid: 29eb83f23703b0d40875db3015189996, type: 2}
  - m_RefCount: 1
    m_Data: {fileID: 11400000, guid: 9d20cf9dadd2e3b4ba9591a13052153b, type: 2}
  - m_RefCount: 1
    m_Data: {fileID: 11400000, guid: 4bc273b259dddba4885960fadb592b65, type: 2}
  - m_RefCount: 1
    m_Data: {fileID: 11400000, guid: 6973e7b1e17a8ca458a67480f9b658e6, type: 2}
  - m_RefCount: 1
    m_Data: {fileID: 11400000, guid: bdf18d4da08355a4da4d095fc079ec0a, type: 2}
  - m_RefCount: 1
    m_Data: {fileID: 11400000, guid: 3a0e461ac48efbe45838934ac5f8f524, type: 2}
  - m_RefCount: 1
    m_Data: {fileID: 11400000, guid: b1ad7dfebffb641468fc0e05d5f60b0a, type: 2}
  - m_RefCount: 1
    m_Data: {fileID: 11400000, guid: c55532b1cc001c74bbfe2a9e2bb19fb2, type: 2}
  - m_RefCount: 1
    m_Data: {fileID: 11400000, guid: 0df7d934919f6054091587836d46d246, type: 2}
  - m_RefCount: 1
    m_Data: {fileID: 11400000, guid: 69055f02a921c934c88075b1b2617bd4, type: 2}
  - m_RefCount: 1
    m_Data: {fileID: 11400000, guid: 133fa70dbedb05f4fa235ae55c20b21c, type: 2}
  - m_RefCount: 1
    m_Data: {fileID: 11400000, guid: f6214949a4813eb409e8cad6a0f525bc, type: 2}
  - m_RefCount: 1
    m_Data: {fileID: 11400000, guid: 525a3dc7feaf8d54491435cd6c247fd7, type: 2}
  - m_RefCount: 1
    m_Data: {fileID: 11400000, guid: 100c4cf49a7ca6b4e831976ee1f733d8, type: 2}
  - m_RefCount: 1
    m_Data: {fileID: 11400000, guid: a32d7bcd80da114438d9754bc7a7d134, type: 2}
  - m_RefCount: 1
    m_Data: {fileID: 11400000, guid: 373af9e55cec1ee4eb11f8184da8aa23, type: 2}
  - m_RefCount: 1
    m_Data: {fileID: 11400000, guid: 525dd31d1fc63294e8d4d80b9bf3cae8, type: 2}
  - m_RefCount: 1
    m_Data: {fileID: 11400000, guid: 3fff00f392e111144ae20086bf641d38, type: 2}
  - m_RefCount: 1
    m_Data: {fileID: 11400000, guid: 720f19ef1c8c6934cb2ca6e84e74a1e4, type: 2}
  - m_RefCount: 1
    m_Data: {fileID: 11400000, guid: 6962203da7b770b469f799365bf52cf1, type: 2}
  - m_RefCount: 1
    m_Data: {fileID: 11400000, guid: 121ce7595af386b48a6226e9f6287663, type: 2}
  - m_RefCount: 1
    m_Data: {fileID: 11400000, guid: 2908198430dbe4243ad0efb1ca7b644c, type: 2}
  - m_RefCount: 1
    m_Data: {fileID: 11400000, guid: 0f2ae5a84eea03b4c80dc2f45e96409a, type: 2}
  - m_RefCount: 1
    m_Data: {fileID: 11400000, guid: f211135a75336e540865a3f3bff56a57, type: 2}
  - m_RefCount: 1
    m_Data: {fileID: 11400000, guid: 025ce11a1700d084787b0e3f9f86a95b, type: 2}
  - m_RefCount: 1
    m_Data: {fileID: 11400000, guid: 9d71376a5bb08a244b7d4bd684227e15, type: 2}
  - m_RefCount: 1
    m_Data: {fileID: 11400000, guid: 1b3c7fdabce065746a1b621e9439263e, type: 2}
  - m_RefCount: 1
    m_Data: {fileID: 11400000, guid: 3359ba3450a98f24985707cf49126b0e, type: 2}
  - m_RefCount: 1
    m_Data: {fileID: 11400000, guid: 14ef7cade73ff7b4b8fef63c6af1a16a, type: 2}
  - m_RefCount: 1
    m_Data: {fileID: 11400000, guid: ec0d1eb9244eadf4db7c18c16c41b2f2, type: 2}
  - m_RefCount: 1
    m_Data: {fileID: 11400000, guid: 8aa7a8e920193c6409491fae0a1a3166, type: 2}
  - m_RefCount: 1
    m_Data: {fileID: 11400000, guid: 919bed75e7b4b3040adc006ea306b49c, type: 2}
  - m_RefCount: 1
    m_Data: {fileID: 11400000, guid: 3550c3f570b6d61418b4ed29f151ea00, type: 2}
  - m_RefCount: 1
    m_Data: {fileID: 11400000, guid: 669f5d1011a95eb4ea374b13a9130193, type: 2}
  - m_RefCount: 1
    m_Data: {fileID: 11400000, guid: 2f16ad9584a27514f80b7ff02833453a, type: 2}
  - m_RefCount: 1
    m_Data: {fileID: 11400000, guid: e6e0c91c01cf49e4498978101b8a1923, type: 2}
  - m_RefCount: 1
    m_Data: {fileID: 11400000, guid: 3e73d82cdfbcb464b852f59353308ebe, type: 2}
  - m_RefCount: 1
    m_Data: {fileID: 11400000, guid: 30b1caa8448038a4088f5e7d9949ff17, type: 2}
  - m_RefCount: 1
    m_Data: {fileID: 11400000, guid: 16053563bb9422741aa7e4d657fe3659, type: 2}
  - m_RefCount: 1
    m_Data: {fileID: 11400000, guid: 2d2b372d52aa1fe4695bc41bd3aca68c, type: 2}
  - m_RefCount: 1
    m_Data: {fileID: 11400000, guid: 940bd89d53649c44dab29923b4798cce, type: 2}
  - m_RefCount: 1
    m_Data: {fileID: 11400000, guid: d8499cf21bdb23f4487fc87c47aa46dd, type: 2}
  - m_RefCount: 1
    m_Data: {fileID: 11400000, guid: 27f3a2bf7af97764d8611af3c9e05ca8, type: 2}
  - m_RefCount: 1
    m_Data: {fileID: 11400000, guid: 4bceb60415a511143bfae95ff9a51a5a, type: 2}
  - m_RefCount: 1
    m_Data: {fileID: 11400000, guid: 17e2cd466cfaf484f8d518a82036341d, type: 2}
  - m_RefCount: 1
    m_Data: {fileID: 11400000, guid: fff8c403a6c3c8a46a21b4a0a19f5e39, type: 2}
  - m_RefCount: 1
    m_Data: {fileID: 11400000, guid: 5e81e26e4faf8994cb57c01197262379, type: 2}
  - m_RefCount: 1
    m_Data: {fileID: 11400000, guid: 9f1eba91d2ea19d489324a3c81d06dce, type: 2}
  - m_RefCount: 1
    m_Data: {fileID: 11400000, guid: e4312868910788248bc62d7a35a62c51, type: 2}
  - m_RefCount: 1
    m_Data: {fileID: 11400000, guid: 65f6f786dbeb6b447b9e546032c30a03, type: 2}
  - m_RefCount: 1
    m_Data: {fileID: 11400000, guid: e48fbd7e2e7747f4eb656211c747b61a, type: 2}
  - m_RefCount: 1
    m_Data: {fileID: 11400000, guid: 05d2b3432a9a979439a8f6736f9ae991, type: 2}
  - m_RefCount: 1
    m_Data: {fileID: 11400000, guid: 6ac658724c5367145b6dfb7f749817dc, type: 2}
  - m_RefCount: 1
    m_Data: {fileID: 11400000, guid: bc8cd140d2c65fb42933d3d0a4848a79, type: 2}
  - m_RefCount: 1
    m_Data: {fileID: 11400000, guid: e80ccb99564fea64c9bb35031d175dda, type: 2}
  - m_RefCount: 1
    m_Data: {fileID: 11400000, guid: 22e5bbd252c7b4b47959b59c1ee09294, type: 2}
  - m_RefCount: 1
    m_Data: {fileID: 11400000, guid: ca00dcb4feb5e0948813384cdab4ba16, type: 2}
  - m_RefCount: 1
    m_Data: {fileID: 11400000, guid: 8b211e8b8a6b7a347bcfe5744188ccf2, type: 2}
  - m_RefCount: 1
    m_Data: {fileID: 11400000, guid: b35a66234ed76b04fbea7613d8bc2f0a, type: 2}
  - m_RefCount: 1
    m_Data: {fileID: 11400000, guid: d7676cea60d0b11409358d24aac3cdd3, type: 2}
  - m_RefCount: 1
    m_Data: {fileID: 11400000, guid: cc1fed7bae7762746ade1eda7f640001, type: 2}
  - m_RefCount: 1
    m_Data: {fileID: 11400000, guid: be26046e4d649f741b7c5b3e2d761df6, type: 2}
  - m_RefCount: 1
    m_Data: {fileID: 11400000, guid: 1eaffc92034aaa747980b4f521a437d8, type: 2}
  - m_RefCount: 1
    m_Data: {fileID: 11400000, guid: c90f7cd82ca85864a974bbe44fc4887a, type: 2}
  - m_RefCount: 1
    m_Data: {fileID: 11400000, guid: 4b1c8690529e4ec4eb0355fae64e5412, type: 2}
  - m_RefCount: 1
    m_Data: {fileID: 11400000, guid: b74fbc15996457a4889a96ec400eacd0, type: 2}
  - m_RefCount: 1
    m_Data: {fileID: 11400000, guid: 027deec84fc213946ac357ea3bd6bad2, type: 2}
  - m_RefCount: 1
    m_Data: {fileID: 11400000, guid: 051f929348f7a5c4cb44b04e6c9907b0, type: 2}
  m_TileSpriteArray:
  - m_RefCount: 1
    m_Data: {fileID: 21300000, guid: 66625a9e89a984a429b87111b1348bb5, type: 3}
  - m_RefCount: 1
    m_Data: {fileID: 21300002, guid: 66625a9e89a984a429b87111b1348bb5, type: 3}
  - m_RefCount: 1
    m_Data: {fileID: 21300004, guid: 66625a9e89a984a429b87111b1348bb5, type: 3}
  - m_RefCount: 1
    m_Data: {fileID: 21300006, guid: 66625a9e89a984a429b87111b1348bb5, type: 3}
  - m_RefCount: 1
    m_Data: {fileID: 21300008, guid: 66625a9e89a984a429b87111b1348bb5, type: 3}
  - m_RefCount: 1
    m_Data: {fileID: 21300010, guid: 66625a9e89a984a429b87111b1348bb5, type: 3}
  - m_RefCount: 1
    m_Data: {fileID: 21300012, guid: 66625a9e89a984a429b87111b1348bb5, type: 3}
  - m_RefCount: 1
    m_Data: {fileID: 21300014, guid: 66625a9e89a984a429b87111b1348bb5, type: 3}
  - m_RefCount: 1
    m_Data: {fileID: 21300016, guid: 66625a9e89a984a429b87111b1348bb5, type: 3}
  - m_RefCount: 1
    m_Data: {fileID: 21300018, guid: 66625a9e89a984a429b87111b1348bb5, type: 3}
  - m_RefCount: 1
    m_Data: {fileID: 21300020, guid: 66625a9e89a984a429b87111b1348bb5, type: 3}
  - m_RefCount: 1
    m_Data: {fileID: 21300022, guid: 66625a9e89a984a429b87111b1348bb5, type: 3}
  - m_RefCount: 1
    m_Data: {fileID: 21300024, guid: 66625a9e89a984a429b87111b1348bb5, type: 3}
  - m_RefCount: 1
    m_Data: {fileID: 21300026, guid: 66625a9e89a984a429b87111b1348bb5, type: 3}
  - m_RefCount: 1
    m_Data: {fileID: 21300028, guid: 66625a9e89a984a429b87111b1348bb5, type: 3}
  - m_RefCount: 1
    m_Data: {fileID: 21300030, guid: 66625a9e89a984a429b87111b1348bb5, type: 3}
  - m_RefCount: 1
    m_Data: {fileID: 21300032, guid: 66625a9e89a984a429b87111b1348bb5, type: 3}
  - m_RefCount: 1
    m_Data: {fileID: 21300034, guid: 66625a9e89a984a429b87111b1348bb5, type: 3}
  - m_RefCount: 1
    m_Data: {fileID: 21300036, guid: 66625a9e89a984a429b87111b1348bb5, type: 3}
  - m_RefCount: 1
    m_Data: {fileID: 21300038, guid: 66625a9e89a984a429b87111b1348bb5, type: 3}
  - m_RefCount: 1
    m_Data: {fileID: 21300040, guid: 66625a9e89a984a429b87111b1348bb5, type: 3}
  - m_RefCount: 1
    m_Data: {fileID: 21300042, guid: 66625a9e89a984a429b87111b1348bb5, type: 3}
  - m_RefCount: 1
    m_Data: {fileID: 21300044, guid: 66625a9e89a984a429b87111b1348bb5, type: 3}
  - m_RefCount: 1
    m_Data: {fileID: 21300046, guid: 66625a9e89a984a429b87111b1348bb5, type: 3}
  - m_RefCount: 1
    m_Data: {fileID: 21300048, guid: 66625a9e89a984a429b87111b1348bb5, type: 3}
  - m_RefCount: 1
    m_Data: {fileID: 21300050, guid: 66625a9e89a984a429b87111b1348bb5, type: 3}
  - m_RefCount: 1
    m_Data: {fileID: 21300052, guid: 66625a9e89a984a429b87111b1348bb5, type: 3}
  - m_RefCount: 1
    m_Data: {fileID: 21300054, guid: 66625a9e89a984a429b87111b1348bb5, type: 3}
  - m_RefCount: 1
    m_Data: {fileID: 21300056, guid: 66625a9e89a984a429b87111b1348bb5, type: 3}
  - m_RefCount: 1
    m_Data: {fileID: 21300058, guid: 66625a9e89a984a429b87111b1348bb5, type: 3}
  - m_RefCount: 1
    m_Data: {fileID: 21300060, guid: 66625a9e89a984a429b87111b1348bb5, type: 3}
  - m_RefCount: 1
    m_Data: {fileID: 21300062, guid: 66625a9e89a984a429b87111b1348bb5, type: 3}
  - m_RefCount: 1
    m_Data: {fileID: 21300064, guid: 66625a9e89a984a429b87111b1348bb5, type: 3}
  - m_RefCount: 1
    m_Data: {fileID: 21300066, guid: 66625a9e89a984a429b87111b1348bb5, type: 3}
  - m_RefCount: 1
    m_Data: {fileID: 21300068, guid: 66625a9e89a984a429b87111b1348bb5, type: 3}
  - m_RefCount: 1
    m_Data: {fileID: 21300070, guid: 66625a9e89a984a429b87111b1348bb5, type: 3}
  - m_RefCount: 1
    m_Data: {fileID: 21300072, guid: 66625a9e89a984a429b87111b1348bb5, type: 3}
  - m_RefCount: 1
    m_Data: {fileID: 21300074, guid: 66625a9e89a984a429b87111b1348bb5, type: 3}
  - m_RefCount: 1
    m_Data: {fileID: 21300076, guid: 66625a9e89a984a429b87111b1348bb5, type: 3}
  - m_RefCount: 1
    m_Data: {fileID: 21300078, guid: 66625a9e89a984a429b87111b1348bb5, type: 3}
  - m_RefCount: 1
    m_Data: {fileID: 21300080, guid: 66625a9e89a984a429b87111b1348bb5, type: 3}
  - m_RefCount: 1
    m_Data: {fileID: 21300082, guid: 66625a9e89a984a429b87111b1348bb5, type: 3}
  - m_RefCount: 1
    m_Data: {fileID: 21300084, guid: 66625a9e89a984a429b87111b1348bb5, type: 3}
  - m_RefCount: 1
    m_Data: {fileID: 21300086, guid: 66625a9e89a984a429b87111b1348bb5, type: 3}
  - m_RefCount: 1
    m_Data: {fileID: 21300088, guid: 66625a9e89a984a429b87111b1348bb5, type: 3}
  - m_RefCount: 1
    m_Data: {fileID: 21300090, guid: 66625a9e89a984a429b87111b1348bb5, type: 3}
  - m_RefCount: 1
    m_Data: {fileID: 21300092, guid: 66625a9e89a984a429b87111b1348bb5, type: 3}
  - m_RefCount: 1
    m_Data: {fileID: 21300094, guid: 66625a9e89a984a429b87111b1348bb5, type: 3}
  - m_RefCount: 1
    m_Data: {fileID: 21300096, guid: 66625a9e89a984a429b87111b1348bb5, type: 3}
  - m_RefCount: 1
    m_Data: {fileID: 21300098, guid: 66625a9e89a984a429b87111b1348bb5, type: 3}
  - m_RefCount: 1
    m_Data: {fileID: 21300100, guid: 66625a9e89a984a429b87111b1348bb5, type: 3}
  - m_RefCount: 1
    m_Data: {fileID: 21300102, guid: 66625a9e89a984a429b87111b1348bb5, type: 3}
  - m_RefCount: 1
    m_Data: {fileID: 21300104, guid: 66625a9e89a984a429b87111b1348bb5, type: 3}
  - m_RefCount: 1
    m_Data: {fileID: 21300106, guid: 66625a9e89a984a429b87111b1348bb5, type: 3}
  - m_RefCount: 1
    m_Data: {fileID: 21300108, guid: 66625a9e89a984a429b87111b1348bb5, type: 3}
  - m_RefCount: 1
    m_Data: {fileID: 21300110, guid: 66625a9e89a984a429b87111b1348bb5, type: 3}
  - m_RefCount: 1
    m_Data: {fileID: 21300112, guid: 66625a9e89a984a429b87111b1348bb5, type: 3}
  - m_RefCount: 1
    m_Data: {fileID: 21300114, guid: 66625a9e89a984a429b87111b1348bb5, type: 3}
  - m_RefCount: 1
    m_Data: {fileID: 21300116, guid: 66625a9e89a984a429b87111b1348bb5, type: 3}
  - m_RefCount: 1
    m_Data: {fileID: 21300118, guid: 66625a9e89a984a429b87111b1348bb5, type: 3}
  - m_RefCount: 1
    m_Data: {fileID: 21300120, guid: 66625a9e89a984a429b87111b1348bb5, type: 3}
  - m_RefCount: 1
    m_Data: {fileID: 21300122, guid: 66625a9e89a984a429b87111b1348bb5, type: 3}
  - m_RefCount: 1
    m_Data: {fileID: 21300124, guid: 66625a9e89a984a429b87111b1348bb5, type: 3}
  - m_RefCount: 1
    m_Data: {fileID: 21300126, guid: 66625a9e89a984a429b87111b1348bb5, type: 3}
  - m_RefCount: 1
    m_Data: {fileID: 21300128, guid: 66625a9e89a984a429b87111b1348bb5, type: 3}
  - m_RefCount: 1
    m_Data: {fileID: 21300130, guid: 66625a9e89a984a429b87111b1348bb5, type: 3}
  - m_RefCount: 1
    m_Data: {fileID: 21300132, guid: 66625a9e89a984a429b87111b1348bb5, type: 3}
  - m_RefCount: 1
    m_Data: {fileID: 21300134, guid: 66625a9e89a984a429b87111b1348bb5, type: 3}
  - m_RefCount: 1
    m_Data: {fileID: 21300136, guid: 66625a9e89a984a429b87111b1348bb5, type: 3}
  - m_RefCount: 1
    m_Data: {fileID: 21300138, guid: 66625a9e89a984a429b87111b1348bb5, type: 3}
  - m_RefCount: 1
    m_Data: {fileID: 21300140, guid: 66625a9e89a984a429b87111b1348bb5, type: 3}
  - m_RefCount: 1
    m_Data: {fileID: 21300142, guid: 66625a9e89a984a429b87111b1348bb5, type: 3}
  - m_RefCount: 1
    m_Data: {fileID: 21300144, guid: 66625a9e89a984a429b87111b1348bb5, type: 3}
  - m_RefCount: 1
    m_Data: {fileID: 21300146, guid: 66625a9e89a984a429b87111b1348bb5, type: 3}
  - m_RefCount: 1
    m_Data: {fileID: 21300148, guid: 66625a9e89a984a429b87111b1348bb5, type: 3}
  - m_RefCount: 1
    m_Data: {fileID: 21300150, guid: 66625a9e89a984a429b87111b1348bb5, type: 3}
  - m_RefCount: 1
    m_Data: {fileID: 21300152, guid: 66625a9e89a984a429b87111b1348bb5, type: 3}
  - m_RefCount: 1
    m_Data: {fileID: 21300154, guid: 66625a9e89a984a429b87111b1348bb5, type: 3}
  - m_RefCount: 1
    m_Data: {fileID: 21300156, guid: 66625a9e89a984a429b87111b1348bb5, type: 3}
  - m_RefCount: 1
    m_Data: {fileID: 21300158, guid: 66625a9e89a984a429b87111b1348bb5, type: 3}
  - m_RefCount: 1
    m_Data: {fileID: 21300160, guid: 66625a9e89a984a429b87111b1348bb5, type: 3}
  - m_RefCount: 1
    m_Data: {fileID: 21300162, guid: 66625a9e89a984a429b87111b1348bb5, type: 3}
  - m_RefCount: 1
    m_Data: {fileID: 21300164, guid: 66625a9e89a984a429b87111b1348bb5, type: 3}
  - m_RefCount: 1
    m_Data: {fileID: 21300166, guid: 66625a9e89a984a429b87111b1348bb5, type: 3}
  - m_RefCount: 1
    m_Data: {fileID: 21300168, guid: 66625a9e89a984a429b87111b1348bb5, type: 3}
  - m_RefCount: 1
    m_Data: {fileID: 21300170, guid: 66625a9e89a984a429b87111b1348bb5, type: 3}
  - m_RefCount: 1
    m_Data: {fileID: 21300172, guid: 66625a9e89a984a429b87111b1348bb5, type: 3}
  - m_RefCount: 1
    m_Data: {fileID: 21300174, guid: 66625a9e89a984a429b87111b1348bb5, type: 3}
  - m_RefCount: 1
    m_Data: {fileID: 21300176, guid: 66625a9e89a984a429b87111b1348bb5, type: 3}
  - m_RefCount: 1
    m_Data: {fileID: 21300178, guid: 66625a9e89a984a429b87111b1348bb5, type: 3}
  - m_RefCount: 1
    m_Data: {fileID: 21300180, guid: 66625a9e89a984a429b87111b1348bb5, type: 3}
  - m_RefCount: 1
    m_Data: {fileID: 21300182, guid: 66625a9e89a984a429b87111b1348bb5, type: 3}
  - m_RefCount: 1
    m_Data: {fileID: 21300184, guid: 66625a9e89a984a429b87111b1348bb5, type: 3}
  - m_RefCount: 1
    m_Data: {fileID: 21300186, guid: 66625a9e89a984a429b87111b1348bb5, type: 3}
  - m_RefCount: 1
    m_Data: {fileID: 21300188, guid: 66625a9e89a984a429b87111b1348bb5, type: 3}
  - m_RefCount: 1
    m_Data: {fileID: 21300190, guid: 66625a9e89a984a429b87111b1348bb5, type: 3}
  - m_RefCount: 1
    m_Data: {fileID: 21300192, guid: 66625a9e89a984a429b87111b1348bb5, type: 3}
  - m_RefCount: 1
    m_Data: {fileID: 21300194, guid: 66625a9e89a984a429b87111b1348bb5, type: 3}
  - m_RefCount: 1
    m_Data: {fileID: 21300196, guid: 66625a9e89a984a429b87111b1348bb5, type: 3}
  - m_RefCount: 1
    m_Data: {fileID: 21300198, guid: 66625a9e89a984a429b87111b1348bb5, type: 3}
  - m_RefCount: 1
    m_Data: {fileID: 21300200, guid: 66625a9e89a984a429b87111b1348bb5, type: 3}
  - m_RefCount: 1
    m_Data: {fileID: 21300202, guid: 66625a9e89a984a429b87111b1348bb5, type: 3}
  - m_RefCount: 1
    m_Data: {fileID: 21300204, guid: 66625a9e89a984a429b87111b1348bb5, type: 3}
  - m_RefCount: 1
    m_Data: {fileID: 21300206, guid: 66625a9e89a984a429b87111b1348bb5, type: 3}
  - m_RefCount: 1
    m_Data: {fileID: 21300208, guid: 66625a9e89a984a429b87111b1348bb5, type: 3}
  - m_RefCount: 1
    m_Data: {fileID: 21300210, guid: 66625a9e89a984a429b87111b1348bb5, type: 3}
  - m_RefCount: 1
    m_Data: {fileID: 21300212, guid: 66625a9e89a984a429b87111b1348bb5, type: 3}
  - m_RefCount: 1
    m_Data: {fileID: 21300214, guid: 66625a9e89a984a429b87111b1348bb5, type: 3}
  - m_RefCount: 1
    m_Data: {fileID: 21300216, guid: 66625a9e89a984a429b87111b1348bb5, type: 3}
  - m_RefCount: 1
    m_Data: {fileID: 21300218, guid: 66625a9e89a984a429b87111b1348bb5, type: 3}
  - m_RefCount: 1
    m_Data: {fileID: 21300220, guid: 66625a9e89a984a429b87111b1348bb5, type: 3}
  - m_RefCount: 1
    m_Data: {fileID: 21300222, guid: 66625a9e89a984a429b87111b1348bb5, type: 3}
  - m_RefCount: 1
    m_Data: {fileID: 21300224, guid: 66625a9e89a984a429b87111b1348bb5, type: 3}
  - m_RefCount: 1
    m_Data: {fileID: 21300226, guid: 66625a9e89a984a429b87111b1348bb5, type: 3}
  - m_RefCount: 1
    m_Data: {fileID: 21300228, guid: 66625a9e89a984a429b87111b1348bb5, type: 3}
  - m_RefCount: 1
    m_Data: {fileID: 21300230, guid: 66625a9e89a984a429b87111b1348bb5, type: 3}
  m_TileMatrixArray:
  - m_RefCount: 116
    m_Data:
      e00: 1
      e01: 0
      e02: 0
      e03: 0
      e10: 0
      e11: 1
      e12: 0
      e13: 0
      e20: 0
      e21: 0
      e22: 1
      e23: 0
      e30: 0
      e31: 0
      e32: 0
      e33: 1
  m_TileColorArray:
  - m_RefCount: 116
    m_Data: {r: 1, g: 1, b: 1, a: 1}
  m_AnimationFrameRate: 1
  m_Color: {r: 1, g: 1, b: 1, a: 1}
  m_Origin: {x: -1, y: -14, z: 0}
  m_Size: {x: 16, y: 15, z: 1}
  m_TileAnchor: {x: 0.5, y: 0.5, z: 0}
  m_TileOrientation: 0
  m_TileOrientationMatrix:
    e00: 1
    e01: 0
    e02: 0
    e03: 0
    e10: 0
    e11: 1
    e12: 0
    e13: 0
    e20: 0
    e21: 0
    e22: 1
    e23: 0
    e30: 0
    e31: 0
    e32: 0
    e33: 1
--- !u!483693784 &7111230590308488680
TilemapRenderer:
  m_ObjectHideFlags: 0
  m_CorrespondingSourceObject: {fileID: 0}
  m_PrefabInstance: {fileID: 0}
  m_PrefabAsset: {fileID: 0}
  m_GameObject: {fileID: 1545930275777426661}
  m_Enabled: 0
  m_CastShadows: 0
  m_ReceiveShadows: 0
  m_DynamicOccludee: 0
  m_MotionVectors: 1
  m_LightProbeUsage: 0
  m_ReflectionProbeUsage: 0
  m_RenderingLayerMask: 1
  m_RendererPriority: 0
  m_Materials:
  - {fileID: 10754, guid: 0000000000000000f000000000000000, type: 0}
  m_StaticBatchInfo:
    firstSubMesh: 0
    subMeshCount: 0
  m_StaticBatchRoot: {fileID: 0}
  m_ProbeAnchor: {fileID: 0}
  m_LightProbeVolumeOverride: {fileID: 0}
  m_ScaleInLightmap: 1
  m_PreserveUVs: 0
  m_IgnoreNormalsForChartDetection: 0
  m_ImportantGI: 0
  m_StitchLightmapSeams: 0
  m_SelectedEditorRenderState: 0
  m_MinimumChartSize: 4
  m_AutoUVMaxDistance: 0.5
  m_AutoUVMaxAngle: 89
  m_LightmapParameters: {fileID: 0}
  m_SortingLayerID: 0
  m_SortingLayer: 0
  m_SortingOrder: 0
  m_ChunkSize: {x: 32, y: 32, z: 32}
  m_ChunkCullingBounds: {x: 0, y: 0, z: 0}
  m_MaxChunkCount: 16
  m_MaxFrameAge: 16
  m_SortOrder: 0
  m_Mode: 0
  m_DetectChunkCullingBounds: 0
  m_MaskInteraction: 0
--- !u!1 &6142083861073083442
GameObject:
  m_ObjectHideFlags: 0
  m_CorrespondingSourceObject: {fileID: 0}
  m_PrefabInstance: {fileID: 0}
  m_PrefabAsset: {fileID: 0}
  serializedVersion: 6
  m_Component:
  - component: {fileID: 2328226594581416909}
  - component: {fileID: 3108013034418328089}
  m_Layer: 31
  m_Name: Castle Pallete
  m_TagString: Untagged
  m_Icon: {fileID: 0}
  m_NavMeshLayer: 0
  m_StaticEditorFlags: 0
  m_IsActive: 1
--- !u!4 &2328226594581416909
Transform:
  m_ObjectHideFlags: 0
  m_CorrespondingSourceObject: {fileID: 0}
  m_PrefabInstance: {fileID: 0}
  m_PrefabAsset: {fileID: 0}
  m_GameObject: {fileID: 6142083861073083442}
  m_LocalRotation: {x: 0, y: 0, z: 0, w: 1}
  m_LocalPosition: {x: 0, y: 0, z: 0}
  m_LocalScale: {x: 1, y: 1, z: 1}
  m_Children:
  - {fileID: 266525572172919021}
  m_Father: {fileID: 0}
  m_RootOrder: 0
  m_LocalEulerAnglesHint: {x: 0, y: 0, z: 0}
--- !u!156049354 &3108013034418328089
Grid:
  m_ObjectHideFlags: 0
  m_CorrespondingSourceObject: {fileID: 0}
  m_PrefabInstance: {fileID: 0}
  m_PrefabAsset: {fileID: 0}
  m_GameObject: {fileID: 6142083861073083442}
  m_Enabled: 1
  m_CellSize: {x: 1, y: 1, z: 0}
  m_CellGap: {x: 0, y: 0, z: 0}
  m_CellLayout: 0
  m_CellSwizzle: 0
--- !u!114 &114686114355638714
MonoBehaviour:
  m_ObjectHideFlags: 0
  m_CorrespondingSourceObject: {fileID: 0}
  m_PrefabInstance: {fileID: 0}
  m_PrefabAsset: {fileID: 0}
  m_GameObject: {fileID: 0}
  m_Enabled: 1
  m_EditorHideFlags: 0
  m_Script: {fileID: 12395, guid: 0000000000000000e000000000000000, type: 0}
  m_Name: Palette Settings
  m_EditorClassIdentifier: 
  cellSizing: 0
